Recommendations for a Unified Approach
1. Create a Centralized Pagination Class
phpclass Paginator {
    // Configuration properties
    private $totalItems;
    private $itemsPerPage;
    private $currentPage;
    private $sortColumn;
    private $sortDirection;
    
    // Methods for pagination calculation, link generation, sorting, etc.
    public function getOffset();
    public function getTotalPages();
    public function generateLinks($baseUrl, $linkClass = 'pagination-link');
    public function getSortLink($column, $label);
    public function getLimitSql();
    public function getOrderBySql();
    public function toArray(); // For AJAX responses
}
2. Standardize Database Query Pattern
Create a standard pattern for all paginated queries:
phpfunction getPaginatedItems($tableName, Paginator $paginator, $filters = []) {
    // 1. Build count query for total items
    // 2. Execute count query
    // 3. Set total items on paginator
    // 4. Build main query with sorting and limits
    // 5. Execute main query
    // 6. Return items and updated paginator
}
3. Create a Unified Frontend Component
Develop a standard JavaScript module for handling pagination and sorting:
javascript// pagination.js
const TablePagination = {
    // Initialize pagination on a container
    init: function(containerId, options) {
        // Setup event handlers, initial state
    },
    
    // Load page data via AJAX
    loadPage: function(page, sort, direction) {
        // Handle AJAX loading with consistent parameters
    },
    
    // Update UI elements
    updateUI: function(data) {
        // Update table, pagination controls, item count display
    },
    
    // Event handlers for pagination links and sort headers
    handlePaginationClick: function(e) {},
    handleSortClick: function(e) {}
};
4. Standardize HTML Structure
html<div class="table-pagination-container" data-endpoint="endpoint.php">
    <!-- Table or content to be paginated -->
    <table class="table-paginated-table">
        <thead>
            <tr>
                <th data-sort="column_name">Column Name</th>
                <!-- More sortable columns -->
            </tr>
        </thead>
        <tbody class="table-paginated-content">
            <!-- Content rows loaded here -->
        </tbody>
    </table>
    
    <!-- Pagination controls -->
    <div class="table-pagination-controls">
        <!-- Page size selector -->
        <div class="table-page-size">
            <label>Show 
                <select class="table-page-size-selector">
                    <option value="10">10</option>
                    <option value="20">20</option>
                    <option value="50">50</option>
                </select> items
            </label>
        </div>
        
        <!-- Page navigation -->
        <ul class="pagination table-pagination-links">
            <!-- Generated pagination links -->
        </ul>
        
        <!-- Page info -->
        <div class="table-pagination-info">
            Showing <span class="table-showing-start">1</span> to 
            <span class="table-showing-end">10</span> of 
            <span class="table-total-items">100</span> items
        </div>
    </div>
</div>
5. Standardized API Response Format
json{
    "success": true,
    "data": {
        "items": [...],          // The items for the current page
        "pagination": {
            "currentPage": 1,
            "totalPages": 10,
            "totalItems": 100,
            "itemsPerPage": 10,
            "sortColumn": "name",
            "sortDirection": "asc"
        },
        "html": "...",           // Optional pre-rendered HTML
    },
    "message": ""                // Optional message
}
6. Implementation Strategy

Create Centralized Files:

includes/Paginator.php - The core pagination class
assets/js/pagination.js - Frontend pagination handler
assets/css/pagination.css - Consistent styling


Update Database Query Functions:

Add standard pagination parameters to all data retrieval functions
Use the Paginator class for SQL clause generation


Standardize AJAX Endpoints:

Create a single endpoint for paginated data: api/get_paginated_data.php
Use a consistent parameter structure for all requests

  / / /
 / / /  WE ARE HERE 
/ / /

Refactor Existing Pages:

Start with one page (lists.php or search.php) to implement the new approach
Gradually update other pages to use the centralized components


Add Features Incrementally:

First ensure basic pagination works consistently
Then add sorting capabilities
Finally add filtering and batch operations



7. Final Benefits

Improved Maintainability: Single source of truth for pagination logic
Consistent User Experience: Same pagination behavior everywhere
Enhanced Features: All tables benefit from improvements in one place
Reduced Code Duplication: Centralized logic means less repetition
Better Error Handling: Unified approach to handling pagination errors
Performance Optimization: Optimizations benefit all paginated views



AJAX Implementation Strategy for the Inventory Management System
Analysis of Current AJAX Implementation
After reviewing the codebase, I've found that:

The system already has an ajax.js file with some implemented functionality
There are inconsistent AJAX implementations across different files
Some features still require page reloads
The current implementation lacks a unified approach to pagination and data handling

Recommended Approach
Instead of creating new files from scratch, we should refactor and expand the existing ajax.js to serve as our centralized AJAX utility. Here's the recommended implementation strategy:
1. Enhance Existing AJAX.js
The current ajax.js should be expanded to include:

Standardized request/response handling
Consistent error handling
Support for all CRUD operations
Pagination functionality
Table content loading

This avoids duplicating code while building on the existing foundation.
2. Implement the Paginator Class
Create the PHP Paginator class as proposed in your initial plan. This server-side component will work with the enhanced AJAX.js to provide consistent pagination across all tables.
3. Standardize API Endpoints
Rather than creating entirely new endpoints, adapt existing PHP handlers to follow a consistent pattern:

Accept the same parameter structure
Return standardized JSON responses
Support pagination, filtering, and sorting

4. Phased Implementation
Phase 1: Core Functionality

Enhance ajax.js to support all required operations
Implement the Paginator class
Standardize existing API response formats

Phase 2: Product Management

Update product search functionality in admin.php
Implement AJAX-based product editing in adminsingleproduct.php
Convert product creation in addproduct.php to use AJAX

Phase 3: List Management

Update lists.php to use the enhanced AJAX functionality
Implement batch operations without page reloads
Ensure export functionality works with AJAX-filtered data

Phase 4: Supporting Tables

Convert author, category, shelf management to use AJAX
Update database management tab to use AJAX for all operations

Phase 5: User Experience Enhancements

Add loading indicators
Implement improved error messages
Ensure language switching works without losing context

5. Specific Changes by File
ajax.js (enhance existing file)

Add standardized table content loading
Implement pagination handlers
Create consistent success/error message display
Add form submission handlers

admin.js

Update to use enhanced ajax.js functions
Remove redundant AJAX implementations
Ensure tab switching uses AJAX

search.php

Adapt to work with standardized pagination
Return JSON for AJAX requests

lists.js

Update to use centralized pagination
Ensure batch operations use AJAX
Maintain selected items across page loads

admin/addproduct.php, admin/adminsingleproduct.php

Add AJAX form submission
Implement real-time validation
Update image preview without page reload

admin/addauthor.php, admin/tabledatamanagement.php

Convert all operations to use AJAX
Implement table refreshing after operations

6. HTML Structure Updates
Maintain consistent HTML structure across tables:

Add data attributes for configuration
Ensure all tables have consistent class names
Add containers for pagination controls
Implement standardized loading indicators

7. Testing Strategy
For each component:

Test basic functionality without AJAX
Implement AJAX enhancements
Test with AJAX enabled
Ensure graceful degradation if JavaScript fails

Implementation Guidelines

Don't Remove Working Code: Enhance rather than replace existing functionality
Maintain PHP Fallbacks: Ensure all AJAX operations have server-side equivalents
Incremental Implementation: Convert one feature at a time to avoid breaking changes
Use Progressive Enhancement: Add AJAX features on top of existing functionality
Consistent Response Format: Standardize all API responses to use the same structure
Error Handling: Improve error feedback for users at both client and server level

Practical Steps

Start by documenting current AJAX functionality in ajax.js
Implement the Paginator class and update one table to use it
Enhance ajax.js with the needed utility functions
Gradually update each page to use the enhanced functionality
Test thoroughly after each component is updated
Document the new approach for future maintenance